-------------------------------------------------------------------------------
Test set: kuhnlab.math.ErfFit1DConstSigmaTest
-------------------------------------------------------------------------------
Tests run: 1, Failures: 0, Errors: 0, Skipped: 0, Time elapsed: 0.05 sec
